{
  "baseUrl": "${host}",
  "key": "stride-adf-example",
  "lifecycle": {
    "installed": "/installed",
    "uninstalled": "/uninstalled"
  },
  "modules": {
    "chat:sidebar": [
      {
        "key": "adf-showcase-sidebar",
        "name": {
          "value": "ADF showcase Sidebar"
        },
        "url": "/sidebar",
        "authentication": "jwt"
      }
    ],
    "chat:glance": [
      {
        "key": "adf-showcase-glance",
        "name": {
          "value": "ADF showcase"
        },
        "icon": {
          "url": "/public/img/logo.png",
          "url@2x": "/public/img/logo.png"
        },
        "target": "adf-showcase-sidebar",
        "queryUrl": "/glance/state",
        "authentication": "jwt"
      }
    ]
  }
}

